blog_baruque - Rodando Multiplos Modelos - Tutorial
…
Já uma outra solução é utilizando tópicos de programação funcional. Primeiro nós iremos mudar o formato dos dados, de maneira que existam 5 variáveis, pessoas_psf, que é nossa Variável Independente, nomes_mortalidade que contém os nomes das nossas variáveis dependentes e values_mortalidade que contém os valores dessas variáveis, e as variáveis municipio, e ano

dados_painel %>% 
  select(contains("tx_mor"), pessoas_psf, municipio, ano) %>%
  # Organizando os dados em formato longo, empilhando as variáveis de mortalidade
  pivot_longer(
    cols = c(tx_mort_menor_1:tx_mort_todos),
    names_to = "nomes_mortalidade",
    values_to = "values_mortalidade"
  ) 

# A tibble: 407,625 × 5
   pessoas_psf municipio              ano   nomes_mortalidade values_mortalidade
         <dbl> <chr>                  <chr> <chr>                          <dbl>
 1           0 110001 Alta Floresta … 1998  tx_mort_menor_1               30.5  
 2           0 110001 Alta Floresta … 1998  tx_mort_menor_1a4              0.375
 3           0 110001 Alta Floresta … 1998  tx_mort_menor_15…            226.   
 4           0 110001 Alta Floresta … 1998  tx_mort_menor_ma…           3198.   
 5           0 110001 Alta Floresta … 1998  tx_mort_todos                351.   
 6           0 110001 Alta Floresta … 1999  tx_mort_menor_1               66.3  
 7           0 110001 Alta Floresta … 1999  tx_mort_menor_1a4              1.15 
 8           0 110001 Alta Floresta … 1999  tx_mort_menor_15…            448.   
 9           0 110001 Alta Floresta … 1999  tx_mort_menor_ma…           4690.   
10           0 110001 Alta Floresta … 1999  tx_mort_todos                667.   
# ℹ 407,615 more rows
…
